Content based movie recommender Antonia
…
stats(df_counted$n)

Wie wir dem Summary entnehmen knnen ist die Anzahl immer 20 fr alle
User.

4. Verteilung der minimalen hnlichkeit fr Top-N Listen fr N = 10,
20, 50, 100 fr alle Nutzer visuell vergleichen.

Um die Scores zu vergleichen benutzen wir Histogramme:

Ns <- c(10, 20, 50, 100)
analyze_topn_recos(m_neg_csim, Ns)

## [[1]]
## # A tibble: 3,772 x 3
##    user  min_score     N
##    <chr>     <dbl> <dbl>
##  1 1         0.769    10
##  2 1         0.766    20
##  3 1         0.766    50
##  4 1         0.662   100
##  5 10        0.786    10
##  6 10        0.749    20
##  7 10        0.749    50
##  8 10        0.709   100
##  9 100       0.832    10
## 10 100       0.832    20
## # i 3,762 more rows
## 
## [[2]]
…
